Error output from the /small/home/d05/rharris/trunk/crayTestSuite/src/jobsRun/2016-06-30T10-02-03Z job. 
2016-06-30 10:59:01.690694

/small/home/d05/rharris/trunk/crayTestSuite/src/jobsRun/2016-06-30T10-02-03Z/epccCollectiveData/4/9/epcc_Broadcast_0016_0009.dat

|     Size      |       Lower       |       Value       |       Upper       |

|      16384      0.0000500            0.0000421            0.0002000      	|

----------------------------------------------------------------------------------

/small/home/d05/rharris/trunk/crayTestSuite/src/jobsRun/2016-06-30T10-02-03Z/epccCollectiveData/8/9/epcc_Reduce_0032_0009.dat

|     Size      |       Lower       |       Value       |       Upper       |

|      65536      0.0004000            0.0017719            0.0016000      	|

----------------------------------------------------------------------------------

/small/home/d05/rharris/trunk/crayTestSuite/src/jobsRun/2016-06-30T10-02-03Z/epccCollectiveData/8/3/epcc_Alltoall_0096_0003.dat

|     Size      |       Lower       |       Value       |       Upper       |

|      16384      0.0900000            0.0880561            0.1300000      	|

----------------------------------------------------------------------------------

/small/home/d05/rharris/trunk/crayTestSuite/src/jobsRun/2016-06-30T10-02-03Z/epccCollectiveData/8/3/epcc_MasteronlyHaloexchange_0096_0003.dat

|     Size      |       Lower       |       Value       |       Upper       |

|      49152      0.0000100            0.0003906            0.0002000      	|

----------------------------------------------------------------------------------

/small/home/d05/rharris/trunk/crayTestSuite/src/jobsRun/2016-06-30T10-02-03Z/epccCollectiveData/16/2/epcc_Alltoall_0288_0002.dat

|     Size      |       Lower       |       Value       |       Upper       |

|      16384      0.2000000            0.1990435            0.2500000      	|

----------------------------------------------------------------------------------

/small/home/d05/rharris/trunk/crayTestSuite/src/jobsRun/2016-06-30T10-02-03Z/epccCollectiveData/16/9/epcc_Gather_0064_0009.dat

|     Size      |       Lower       |       Value       |       Upper       |

|      65536      0.0050000            0.0355305            0.0250000      	|

----------------------------------------------------------------------------------

/small/home/d05/rharris/trunk/crayTestSuite/src/jobsRun/2016-06-30T10-02-03Z/collectiveData/4/1/osu_gather_run_32_128.dat

|     Size      |       Lower       |       Value       |       Upper       |

|     524288      0.0000000           822.7400000          810.0000000     	|

----------------------------------------------------------------------------------

/small/home/d05/rharris/trunk/crayTestSuite/src/jobsRun/2016-06-30T10-02-03Z/epccCollectiveData/8/3/epcc_Broadcast_0096_0003.dat

|     Size      |       Lower       |       Value       |       Upper       |

|      65536      0.0000500            0.0002743            0.0002500      	|

----------------------------------------------------------------------------------

/small/home/d05/rharris/trunk/crayTestSuite/src/jobsRun/2016-06-30T10-02-03Z/epccCollectiveData/16/9/epcc_Broadcast_0064_0009.dat

|     Size      |       Lower       |       Value       |       Upper       |

|      16384      0.0000500            0.0005993            0.0002000      	|

----------------------------------------------------------------------------------

/small/home/d05/rharris/trunk/crayTestSuite/src/jobsRun/2016-06-30T10-02-03Z/epccCollectiveData/8/1/epcc_Reduce_0288_0001.dat

|     Size      |       Lower       |       Value       |       Upper       |

|      16384      0.0000500            0.0005089            0.0001500      	|

----------------------------------------------------------------------------------

/small/home/d05/rharris/trunk/crayTestSuite/src/jobsRun/2016-06-30T10-02-03Z/collectiveData/8/1/osu_allreduce_run_32_256.dat

|     Size      |       Lower       |       Value       |       Upper       |

|     262144      0.0000000           1175.1100000         1000.0000000    	|

----------------------------------------------------------------------------------

/small/home/d05/rharris/trunk/crayTestSuite/src/jobsRun/2016-06-30T10-02-03Z/epccCollectiveData/16/18/epcc_Alltoall_0032_0018.dat

|     Size      |       Lower       |       Value       |       Upper       |

|      16384      0.1750000            0.1729112            0.2050000      	|

----------------------------------------------------------------------------------

/small/home/d05/rharris/trunk/crayTestSuite/src/jobsRun/2016-06-30T10-02-03Z/epccCollectiveData/8/9/epcc_Alltoall_0032_0009.dat

|     Size      |       Lower       |       Value       |       Upper       |

|      16384      0.0900000            0.0878124            0.1200000      	|
|      65536      0.3100000            0.3017362            0.3900000      	|

----------------------------------------------------------------------------------

/small/home/d05/rharris/trunk/crayTestSuite/src/jobsRun/2016-06-30T10-02-03Z/epccCollectiveData/8/9/epcc_FunnelledHaloexchange_0032_0009.dat

|     Size      |       Lower       |       Value       |       Upper       |

|     294912      0.0002000            0.0007606            0.0006000      	|

----------------------------------------------------------------------------------

/small/home/d05/rharris/trunk/crayTestSuite/src/jobsRun/2016-06-30T10-02-03Z/collectiveData/4/1/osu_alltoallv_run_32_128.dat

|     Size      |       Lower       |       Value       |       Upper       |

|     524288      0.0000000          495839.6500000       480000.0000000   	|

----------------------------------------------------------------------------------

/small/home/d05/rharris/trunk/crayTestSuite/src/jobsRun/2016-06-30T10-02-03Z/epccCollectiveData/8/9/epcc_MultipleHaloexchange_0032_0009.dat

|     Size      |       Lower       |       Value       |       Upper       |

|     147456      0.0002000            0.0005720            0.0004000      	|

----------------------------------------------------------------------------------

/small/home/d05/rharris/trunk/crayTestSuite/src/jobsRun/2016-06-30T10-02-03Z/epccCollectiveData/8/3/epcc_MultipleHaloexchange_0096_0003.dat

|     Size      |       Lower       |       Value       |       Upper       |

|      49152      0.0001000            0.0000846            0.0010000      	|

----------------------------------------------------------------------------------

/small/home/d05/rharris/trunk/crayTestSuite/src/jobsRun/2016-06-30T10-02-03Z/epccCollectiveData/8/1/epcc_AllReduce_0288_0001.dat

|     Size      |       Lower       |       Value       |       Upper       |

|      16384      0.0000500            0.0002527            0.0002000      	|

----------------------------------------------------------------------------------

/small/home/d05/rharris/trunk/crayTestSuite/src/jobsRun/2016-06-30T10-02-03Z/epccPt2ptData/2/8/epcc_FunnelledPingpongIntra_0004_0008.dat

|     Size      |       Lower       |       Value       |       Upper       |

|     262144      0.0003400            0.0002785            0.0004000      	|

----------------------------------------------------------------------------------

/small/home/d05/rharris/trunk/crayTestSuite/src/jobsRun/2016-06-30T10-02-03Z/epccPt2ptData/2/4/epcc_MultiplePingpongIntra_0004_0004.dat

|     Size      |       Lower       |       Value       |       Upper       |

|      65536      0.0000400            0.0000616            0.0000600      	|

----------------------------------------------------------------------------------

/small/home/d05/rharris/trunk/crayTestSuite/src/jobsRun/2016-06-30T10-02-03Z/epccCollectiveData/8/9/epcc_AllReduce_0032_0009.dat

|     Size      |       Lower       |       Value       |       Upper       |

|      65536      0.0005000            0.0020043            0.0012000      	|

----------------------------------------------------------------------------------

/small/home/d05/rharris/trunk/crayTestSuite/src/jobsRun/2016-06-30T10-02-03Z/epccCollectiveData/8/9/epcc_Broadcast_0032_0009.dat

|     Size      |       Lower       |       Value       |       Upper       |

|      32768      0.0000500            0.0004573            0.0002500      	|
|      65536      0.0000500            0.0007916            0.0006000      	|

----------------------------------------------------------------------------------

/small/home/d05/rharris/trunk/crayTestSuite/src/jobsRun/2016-06-30T10-02-03Z/epccCollectiveData/8/9/epcc_MasteronlyHaloexchange_0032_0009.dat

|     Size      |       Lower       |       Value       |       Upper       |

|     294912      0.0002000            0.0008180            0.0004000      	|

----------------------------------------------------------------------------------

